{
  "name": "marvi-common",
  "version": "0.1",
  "author": "marvi",
  "summary": "Base configiration for all hosts",
  "license": "Apache-2.0",
  "source": "https://github.com/puppetlabs/puppetlabs-stdlib",
  "project_page": "https://github.com/puppetlabs/puppetlabs-stdlib",
  "issues_url": "https://tickets.puppetlabs.com/browse/MODULES",
  "dependencies": [
  ],
  "data_provider": null,
  "description": "Base configuration"
}
